…
The left plot shows a lot of variation between the poststratified averages. The right plot1 indicates that every poststratified state average is pushed near zero. That’s not necessarily a problem in its down right, but we should still debug the model.

Within each state, each group is a certain percentage of the total populations. And the percentages of each group should add up to one, the entire state population:

Census %>%
  group_by(state) %>%
  summarise(percent = sum(cpercent.state)) %>%
  arrange(desc(percent))

## # A tibble: 51 x 2
##    state percent
##    <chr>   <dbl>
##  1    IN       1
##  2    MA       1
##  3    IL       1
##  4    NV       1
##  5    WY       1
##  6    KS       1
##  7    NH       1
##  8    NM       1
##  9    AK       1
## 10    ME       1
## # ... with 41 more rows
…
